[
  {
    "abbreviation": "WL",
    "description": "Wehrleiter",
    "sorting": 900,
    "isVisibilityOperationReport": 0
  },
  {
    "abbreviation": "St. WL",
    "description": "Stellv. Wehrleiter",
    "sorting": 850,
    "isVisibilityOperationReport": 0
  },
  {
    "abbreviation": "EL",
    "description": "Einsatzleiter",
    "sorting": 800,
    "isVisibilityOperationReport": 1
  },
  {
    "abbreviation": "ZF",
    "description": "Zugführer",
    "sorting": 700,
    "isVisibilityOperationReport": 1
  },
  {
    "abbreviation": "AL",
    "description": "Abschnittsleiter",
    "sorting": 600,
    "isVisibilityOperationReport": 1
  },
  {
    "abbreviation": "GF",
    "description": "Gruppenführer",
    "sorting": 500,
    "isVisibilityOperationReport": 1
  },
  {
    "abbreviation": "MA",
    "description": "Maschinist",
    "sorting": 400,
    "isVisibilityOperationReport": 1
  },
  {
    "abbreviation": "FM",
    "description": "Feuerwehrmann",
    "sorting": 300,
    "isVisibilityOperationReport": 1
  }
]