[
  {
    "id": "0f57fbcd-80cf-463c-b965-accab226ee1d",
    "department_id": "Fw Niederwiesa",
    "abbreviation": "El. Geräte",
    "description": "Elektronische Geräte",
    "sorting": 10,
    "is_visibility_operation_report": 1,
    "comment": "",
    "created_at": "2023-10-21 17:21:15",
    "updated_at": null,
    "created_from": "Junghans, Marcel",
    "updated_from": null,
    "is_visibility": 1
  },
  {
    "id": "25fdd0ac-c8e7-40a2-896b-254dbf06d8e3",
    "department_id": "Fw Niederwiesa",
    "abbreviation": "Fhz & Ah",
    "description": "Fahrzeuge & Anhänger",
    "sorting": 20,
    "is_visibility_operation_report": 1,
    "comment": "",
    "created_at": "2023-10-25 18:57:58",
    "updated_at": null,
    "created_from": "Junghans, Marcel",
    "updated_from": null,
    "is_visibility": 1
  },
  {
    "id": "9d22128a-6a94-43dd-bbd6-9a1e957d3c13",
    "department_id": "Fw Niederwiesa",
    "abbreviation": "Sonstiges",
    "description": "Sonstiges",
    "sorting": 50,
    "is_visibility_operation_report": 1,
    "comment": "",
    "created_at": "2023-10-25 18:58:34",
    "updated_at": null,
    "created_from": "Junghans, Marcel",
    "updated_from": null,
    "is_visibility": 1
  },
  {
    "id": "abea4bee-e998-4dbf-898b-56bce49ba222",
    "department_id": "Fw Niederwiesa",
    "abbreviation": "Mesch - Hilfsm.",
    "description": "Mechanische Hilfsmittel\t",
    "sorting": 40,
    "is_visibility_operation_report": 1,
    "comment": "",
    "created_at": "2023-10-25 18:58:26",
    "updated_at": null,
    "created_from": "Junghans, Marcel",
    "updated_from": null,
    "is_visibility": 1
  },
  {
    "id": "cc5bbb17-95e9-48d9-b05b-82657025b9f4",
    "department_id": "Fw Niederwiesa",
    "abbreviation": "Kl.- Geräte",
    "description": "Kleingeräte",
    "sorting": 30,
    "is_visibility_operation_report": 1,
    "comment": "",
    "created_at": "2023-10-25 18:58:10",
    "updated_at": null,
    "created_from": "Junghans, Marcel",
    "updated_from": null,
    "is_visibility": 1
  }
]